<?xml version="1.0" encoding="windows-1252" standalone="no"?>
<!DOCTYPE log SYSTEM "logger.dtd">
<log>
<record>
  <date>2021-10-28T14:02:10.719201400Z</date>
  <millis>1635429730719</millis>
  <nanos>201400</nanos>
  <sequence>0</sequence>
  <logger>be.kdg.model.sneaker</logger>
  <level>SEVERE</level>
  <class>be.kdg.Sneaker</class>
  <method>setSize</method>
  <thread>1</thread>
  <message>Size: 33 cannot be set because its below EU 35!</message>
</record>
<record>
  <date>2021-10-28T14:02:10.765078800Z</date>
  <millis>1635429730765</millis>
  <nanos>78800</nanos>
  <sequence>1</sequence>
  <logger>be.kdg.model.sneaker</logger>
  <level>SEVERE</level>
  <class>be.kdg.Sneaker</class>
  <method>setName</method>
  <thread>1</thread>
  <message>Name cannot be empty or null</message>
</record>
<record>
  <date>2021-10-28T14:02:10.770066500Z</date>
  <millis>1635429730770</millis>
  <nanos>66500</nanos>
  <sequence>2</sequence>
  <logger>be.kdg.model.sneaker</logger>
  <level>SEVERE</level>
  <class>be.kdg.Sneaker</class>
  <method>setReleaseDate</method>
  <thread>1</thread>
  <message>Release 1970-03-30is before 1980 and is impossible</message>
</record>
<record>
  <date>2021-10-28T14:02:10.773057700Z</date>
  <millis>1635429730773</millis>
  <nanos>57700</nanos>
  <sequence>3</sequence>
  <logger>be.kdg.model.sneaker</logger>
  <level>SEVERE</level>
  <class>be.kdg.Sneaker</class>
  <method>setPrice</method>
  <thread>1</thread>
  <message>Price: -50.0 cannot be set because its below 0!</message>
</record>
<record>
  <date>2021-10-28T14:02:10.776050500Z</date>
  <millis>1635429730776</millis>
  <nanos>50500</nanos>
  <sequence>4</sequence>
  <logger>be.kdg.model.sneakers</logger>
  <level>FINER</level>
  <class>be.kdg.Sneakers</class>
  <method>add</method>
  <thread>1</thread>
  <message>Dunk Paisley is being added to the sneaker-set!</message>
</record>
<record>
  <date>2021-10-28T14:02:10.776050500Z</date>
  <millis>1635429730776</millis>
  <nanos>50500</nanos>
  <sequence>5</sequence>
  <logger>be.kdg.model.sneakers</logger>
  <level>FINER</level>
  <class>be.kdg.Sneakers</class>
  <method>remove</method>
  <thread>1</thread>
  <message>Dunk Paisley is being removed from the sneaker-set!</message>
</record>
</log>
