<?xml version="1.0" encoding="windows-1252" standalone="no"?>
<!DOCTYPE log SYSTEM "logger.dtd">
<log>
<record>
  <date>2021-10-28T14:02:58.640442500Z</date>
  <millis>1635429778640</millis>
  <nanos>442500</nanos>
  <sequence>0</sequence>
  <logger>be.kdg.model.sneaker</logger>
  <level>SEVERE</level>
  <class>be.kdg.Sneaker</class>
  <method>setSize</method>
  <thread>1</thread>
  <message>Size: 33 cannot be set because its below EU 35!</message>
</record>
<record>
  <date>2021-10-28T14:02:58.696294600Z</date>
  <millis>1635429778696</millis>
  <nanos>294600</nanos>
  <sequence>1</sequence>
  <logger>be.kdg.model.sneaker</logger>
  <level>SEVERE</level>
  <class>be.kdg.Sneaker</class>
  <method>setName</method>
  <thread>1</thread>
  <message>Name cannot be empty or null</message>
</record>
<record>
  <date>2021-10-28T14:02:58.701317700Z</date>
  <millis>1635429778701</millis>
  <nanos>317700</nanos>
  <sequence>2</sequence>
  <logger>be.kdg.model.sneaker</logger>
  <level>SEVERE</level>
  <class>be.kdg.Sneaker</class>
  <method>setReleaseDate</method>
  <thread>1</thread>
  <message>Release 1970-03-30is before 1980 and is impossible</message>
</record>
<record>
  <date>2021-10-28T14:02:58.704308500Z</date>
  <millis>1635429778704</millis>
  <nanos>308500</nanos>
  <sequence>3</sequence>
  <logger>be.kdg.model.sneaker</logger>
  <level>SEVERE</level>
  <class>be.kdg.Sneaker</class>
  <method>setPrice</method>
  <thread>1</thread>
  <message>Price: -50.0 cannot be set because its below 0!</message>
</record>
<record>
  <date>2021-10-28T14:02:58.706292700Z</date>
  <millis>1635429778706</millis>
  <nanos>292700</nanos>
  <sequence>4</sequence>
  <logger>be.kdg.model.sneakers</logger>
  <level>FINER</level>
  <class>be.kdg.Sneakers</class>
  <method>add</method>
  <thread>1</thread>
  <message>Dunk Paisley is being added to the sneaker-set!</message>
</record>
<record>
  <date>2021-10-28T14:02:58.707263900Z</date>
  <millis>1635429778707</millis>
  <nanos>263900</nanos>
  <sequence>5</sequence>
  <logger>be.kdg.model.sneakers</logger>
  <level>FINER</level>
  <class>be.kdg.Sneakers</class>
  <method>remove</method>
  <thread>1</thread>
  <message>Dunk Paisley is being removed from the sneaker-set!</message>
</record>
</log>
