<?xml version="1.0" encoding="windows-1252" standalone="no"?>
<!DOCTYPE log SYSTEM "logger.dtd">
<log>
<record>
  <date>2021-10-28T14:02:40.689243100Z</date>
  <millis>1635429760689</millis>
  <nanos>243100</nanos>
  <sequence>0</sequence>
  <logger>be.kdg.model.sneaker</logger>
  <level>SEVERE</level>
  <class>be.kdg.Sneaker</class>
  <method>setSize</method>
  <thread>1</thread>
  <message>Size: 33 cannot be set because its below EU 35!</message>
</record>
<record>
  <date>2021-10-28T14:02:40.735125200Z</date>
  <millis>1635429760735</millis>
  <nanos>125200</nanos>
  <sequence>1</sequence>
  <logger>be.kdg.model.sneaker</logger>
  <level>SEVERE</level>
  <class>be.kdg.Sneaker</class>
  <method>setName</method>
  <thread>1</thread>
  <message>Name cannot be empty or null</message>
</record>
<record>
  <date>2021-10-28T14:02:40.744135200Z</date>
  <millis>1635429760744</millis>
  <nanos>135200</nanos>
  <sequence>2</sequence>
  <logger>be.kdg.model.sneaker</logger>
  <level>SEVERE</level>
  <class>be.kdg.Sneaker</class>
  <method>setReleaseDate</method>
  <thread>1</thread>
  <message>Release 1970-03-30is before 1980 and is impossible</message>
</record>
<record>
  <date>2021-10-28T14:02:40.747118500Z</date>
  <millis>1635429760747</millis>
  <nanos>118500</nanos>
  <sequence>3</sequence>
  <logger>be.kdg.model.sneaker</logger>
  <level>SEVERE</level>
  <class>be.kdg.Sneaker</class>
  <method>setPrice</method>
  <thread>1</thread>
  <message>Price: -50.0 cannot be set because its below 0!</message>
</record>
<record>
  <date>2021-10-28T14:02:40.750109300Z</date>
  <millis>1635429760750</millis>
  <nanos>109300</nanos>
  <sequence>4</sequence>
  <logger>be.kdg.model.sneakers</logger>
  <level>FINER</level>
  <class>be.kdg.Sneakers</class>
  <method>add</method>
  <thread>1</thread>
  <message>Dunk Paisley is being added to the sneaker-set!</message>
</record>
<record>
  <date>2021-10-28T14:02:40.751083800Z</date>
  <millis>1635429760751</millis>
  <nanos>83800</nanos>
  <sequence>5</sequence>
  <logger>be.kdg.model.sneakers</logger>
  <level>FINER</level>
  <class>be.kdg.Sneakers</class>
  <method>remove</method>
  <thread>1</thread>
  <message>Dunk Paisley is being removed from the sneaker-set!</message>
</record>
</log>
